<svg xmlns="http://www.w3.org/2000/svg" width="41" height="41" viewBox="0 0 41 41">
    <defs>
        <clipPath id="clip-path">
            <path id="Прямоугольник_23" fill="#ccc" stroke="#707070" d="M0 0H41V41H0z" data-name="Прямоугольник 23" transform="translate(845 296)"/>
        </clipPath>
        <style>
            .cls-3{fill:#ccc}
        </style>
    </defs>
    <g id="Группа_масок_11" clip-path="url(#clip-path)" data-name="Группа масок 11" transform="translate(-845 -296)">
        <g id="distance" transform="translate(843.586 293.879)">
            <path id="Контур_109" d="M10.6 8.288a2.679 2.679 0 0 1-2.121.9v3.534h4.241V9.19a2.681 2.681 0 0 1-2.12-.902z" class="cls-3" data-name="Контур 109"/>
            <path id="Контур_110" d="M6.362 8.288a2.679 2.679 0 0 1-2.121.9 2.925 2.925 0 0 1-1.414-.333v5.281h4.242V8.857a2.507 2.507 0 0 1-.707-.569z" class="cls-3" data-name="Контур 110"/>
            <path id="Контур_111" d="M11.31 2.828v3.534a1.951 1.951 0 0 0 .207.777 1.222 1.222 0 0 0 1.206.637 1.222 1.222 0 0 0 1.206-.637 1.948 1.948 0 0 0 .2-.734l-.6-3.578z" class="cls-3" data-name="Контур 111"/>
            <path id="Контур_112" d="M9.689 7.139a1.949 1.949 0 0 0 .211-.782V2.828H7.668l-.6 3.579a1.952 1.952 0 0 0 .2.733 1.223 1.223 0 0 0 1.206.636 1.222 1.222 0 0 0 1.215-.637z" class="cls-3" data-name="Контур 112"/>
            <path id="Контур_113" d="M8.483 14.845v2.121h4.241v-2.828H8.483z" class="cls-3" data-name="Контур 113"/>
            <path id="Контур_114" d="M14.138 15.552h4.241v1.414h-4.241z" class="cls-3" data-name="Контур 114"/>
            <path id="Контур_115" d="M14.845 8.288a2.508 2.508 0 0 1-.707.569v5.28h4.241v-5.28a2.925 2.925 0 0 1-1.414.333 2.681 2.681 0 0 1-2.12-.902z" class="cls-3" data-name="Контур 115"/>
            <path id="Контур_116" d="M4.241 7.776a1.222 1.222 0 0 0 1.206-.637 1.949 1.949 0 0 0 .207-.782.71.71 0 0 1 .016-.147l.564-3.381h-2.19L2.835 6.456a1.936 1.936 0 0 0 .2.683 1.222 1.222 0 0 0 1.206.637z" class="cls-3" data-name="Контур 116"/>
            <path id="Контур_117" d="M15.541 6.246a.709.709 0 0 1 .01.116 1.951 1.951 0 0 0 .207.777 1.222 1.222 0 0 0 1.206.637 1.222 1.222 0 0 0 1.206-.637 1.934 1.934 0 0 0 .2-.684l-1.207-3.627h-2.19l.57 3.418z" class="cls-3" data-name="Контур 117"/>
            <path id="Контур_118" d="M2.828 15.552h4.241v1.414H2.828z" class="cls-3" data-name="Контур 118"/>
            <path id="Контур_119" d="M38.879 28.983a3.538 3.538 0 0 0-3.534 3.534 9.232 9.232 0 0 0 3.533 6.888 9.274 9.274 0 0 0 3.536-6.888 3.538 3.538 0 0 0-3.534-3.534zm0 5.655A2.121 2.121 0 1 1 41 32.517a2.121 2.121 0 0 1-2.121 2.121z" class="cls-3" data-name="Контур 119"/>
            <circle id="Эллипс_4" cx=".707" cy=".707" r=".707" class="cls-3" data-name="Эллипс 4" transform="translate(38.172 31.81)"/>
            <path id="Контур_120" d="M38.879 42.414H8.483a7.069 7.069 0 1 1 0-14.138h18.379a5.655 5.655 0 1 0 0-11.31H20.5a.707.707 0 1 1 0-1.414h6.362a7.069 7.069 0 0 1 0 14.138H8.483a5.655 5.655 0 1 0 0 11.31h30.4a.707.707 0 0 1 0 1.414z" class="cls-3" data-name="Контур 120"/>
        </g>
    </g>
</svg>
