<svg xmlns="http://www.w3.org/2000/svg" width="41" height="41" viewBox="0 0 41 41">
    <defs>
        <clipPath id="clip-path">
            <path id="Прямоугольник_23" fill="#ccc" stroke="#707070" d="M0 0H41V41H0z" data-name="Прямоугольник 23" transform="translate(1266 178)"/>
        </clipPath>
        <style>
            .cls-3{fill:#ccc}
        </style>
    </defs>
    <g id="Группа_масок_9" clip-path="url(#clip-path)" data-name="Группа масок 9" transform="translate(-1266 -178)">
        <g id="Layer_19" data-name="Layer 19" transform="translate(1265.339 177.339)">
            <path id="Контур_95" d="M21.161.661a20.5 20.5 0 1 0 20.5 20.5 20.5 20.5 0 0 0-20.5-20.5zm0 39.677A19.177 19.177 0 0 1 1.984 21.823h2.645V20.5H1.984A19.058 19.058 0 0 1 7.129 8.088l1.64 1.64.939-.939-1.64-1.64A19.058 19.058 0 0 1 20.5 1.984v1.984h1.323V1.984a19.058 19.058 0 0 1 12.412 5.145L32.6 8.769l.939.939 1.64-1.64a19.058 19.058 0 0 1 5.16 12.432h-1.984v1.323h1.984a19.177 19.177 0 0 1-19.178 18.516z" class="cls-3" data-name="Контур 95"/>
            <path id="Контур_96" d="M5.35 20.5h3.968a.661.661 0 0 0 .661-.589 11.156 11.156 0 0 1 2.348-5.7.661.661 0 0 0-.053-.88l-2.818-2.823a.661.661 0 0 0-.972.046 16.407 16.407 0 0 0-3.8 9.258.694.694 0 0 0 .172.5.661.661 0 0 0 .494.188zm3.7-8.531l1.9 1.918a12.565 12.565 0 0 0-2.189 5.29H6.11a15.064 15.064 0 0 1 2.936-7.208z" class="cls-3" data-name="Контур 96"/>
            <path id="Контур_97" d="M36.973 21.823h-3.968a.661.661 0 0 0-.661.589A11.242 11.242 0 0 1 30 28.111a.661.661 0 0 0 .053.88l2.83 2.824a.661.661 0 0 0 .463.192h.033a.661.661 0 0 0 .476-.238 16.407 16.407 0 0 0 3.8-9.258.694.694 0 0 0-.172-.5.661.661 0 0 0-.51-.188zm-3.7 8.531l-1.9-1.918a12.565 12.565 0 0 0 2.189-5.29h2.645a15.064 15.064 0 0 1-2.936 7.208z" class="cls-3" data-name="Контур 97"/>
            <path id="Контур_98" d="M12.34 28.111a11.242 11.242 0 0 1-2.348-5.7.661.661 0 0 0-.661-.589H5.363a.661.661 0 0 0-.489.212.694.694 0 0 0-.172.5 16.407 16.407 0 0 0 3.8 9.258.661.661 0 0 0 .476.238.661.661 0 0 0 .463-.192l2.83-2.824a.661.661 0 0 0 .069-.903zm-3.307 2.242a15.064 15.064 0 0 1-2.949-7.208h2.645a12.565 12.565 0 0 0 2.189 5.29z" class="cls-3" data-name="Контур 98"/>
            <path id="Контур_99" d="M22.411 9.992a11.156 11.156 0 0 1 5.7 2.348.672.672 0 0 0 .88-.053l2.824-2.824a.665.665 0 0 0-.046-.979 16.407 16.407 0 0 0-9.258-3.8.658.658 0 0 0-.714.661v3.973a.661.661 0 0 0 .614.674zm.734-3.908a15.064 15.064 0 0 1 7.208 2.963l-1.918 1.9a12.5 12.5 0 0 0-5.29-2.189z" class="cls-3" data-name="Контур 99"/>
            <path id="Контур_100" d="M13.332 12.287a.672.672 0 0 0 .88.053 11.156 11.156 0 0 1 5.7-2.348.661.661 0 0 0 .589-.661V5.363a.658.658 0 0 0-.714-.661 16.407 16.407 0 0 0-9.258 3.8.665.665 0 0 0-.046.979zm5.846-6.2v2.642a12.5 12.5 0 0 0-5.29 2.189l-1.919-1.872a15.064 15.064 0 0 1 7.208-2.963z" class="cls-3" data-name="Контур 100"/>
            <path id="Контур_101" d="M33.362 10.316a.661.661 0 0 0-.5.192l-2.83 2.824a.661.661 0 0 0-.053.88 11.156 11.156 0 0 1 2.348 5.7.661.661 0 0 0 .661.589h3.972a.661.661 0 0 0 .489-.212.694.694 0 0 0 .172-.5 16.407 16.407 0 0 0-3.8-9.258.661.661 0 0 0-.463-.212zm.2 8.861a12.565 12.565 0 0 0-2.189-5.29L33.276 12a15.064 15.064 0 0 1 2.963 7.182z" class="cls-3" data-name="Контур 101"/>
            <path id="Контур_102" d="M30.419 31.742H11.9a.661.661 0 0 0-.661.661v2.645a.661.661 0 0 0 .661.661h18.519a.661.661 0 0 0 .661-.661V32.4a.661.661 0 0 0-.661-.658zm-.661 2.645H12.565v-1.322h17.193z" class="cls-3" data-name="Контур 102"/>
            <path id="Контур_103" d="M19.217 29.5a2.513 2.513 0 0 0 3.888 0 3.042 3.042 0 0 0 .661-2.453L21.823 15.1a.661.661 0 0 0-1.323 0l-1.984 11.947a3.042 3.042 0 0 0 .7 2.453zm.661-2.235L21.2 19.33l1.323 7.935a1.713 1.713 0 0 1-.357 1.375 1.217 1.217 0 0 1-1.878 0 1.713 1.713 0 0 1-.45-1.375z" class="cls-3" data-name="Контур 103"/>
        </g>
    </g>
</svg>
